{
    "identityPoolName": "zctzadanie2_identitypool_1100276e",
    "allowUnauthenticatedIdentities": true,
    "authSelections": "identityPoolOnly",
    "resourceName": "cognito39597ed8",
    "authRoleArn": {
        "Fn::GetAtt": [
            "AuthRole",
            "Arn"
        ]
    },
    "unauthRoleArn": {
        "Fn::GetAtt": [
            "UnauthRole",
            "Arn"
        ]
    }
}